{
	"info": {
		"_postman_id": "4047c84e-b811-47b3-bada-0ed36d9aef0b",
		"name": "hamy_cat",
		"schema": "https://schema.getpostman.com/json/collection/v2.1.0/collection.json",
		"_exporter_id": "18931877"
	},
	"item": [
		{
			"name": "register_user",
			"request": {
				"method": "POST",
				"header": [
					{
						"key": "Content-Type",
						"value": "application/json",
						"type": "text"
					}
				],
				"body": {
					"mode": "raw",
					"raw": "{\r\n    \"firstName\": \"mohammad3\",\r\n    \"lastName\": \"toni\",\r\n    \"email\": \"212s223sss2ss4@gmail.com\",\r\n    \"password1\": \"1233\",\r\n    \"password2\": \"1233\"\r\n}",
					"options": {
						"raw": {
							"language": "json"
						}
					}
				},
				"url": {
					"raw": "http://localhost:3000/authentication/register",
					"protocol": "http",
					"host": [
						"localhost"
					],
					"port": "3000",
					"path": [
						"authentication",
						"register"
					]
				}
			},
			"response": [
				{
					"name": "register_user",
					"originalRequest": {
						"method": "POST",
						"header": [
							{
								"key": "Content-Type",
								"value": "application/json",
								"type": "text"
							}
						],
						"body": {
							"mode": "raw",
							"raw": "{\r\n    \"firstName\": \"mohammad\",\r\n    \"lastName\": \"tondkar\",\r\n    \"email\": \"mohmmadtondkar5@gmail.com\",\r\n    \"password1\": \"1234\",\r\n    \"password2\": \"1234\"\r\n}",
							"options": {
								"raw": {
									"language": "json"
								}
							}
						},
						"url": {
							"raw": "http://localhost:3000/authentication/register",
							"protocol": "http",
							"host": [
								"localhost"
							],
							"port": "3000",
							"path": [
								"authentication",
								"register"
							]
						}
					},
					"status": "OK",
					"code": 200,
					"_postman_previewlanguage": "json",
					"header": [
						{
							"key": "X-Powered-By",
							"value": "Express"
						},
						{
							"key": "Content-Type",
							"value": "application/json; charset=utf-8"
						},
						{
							"key": "Content-Length",
							"value": "522"
						},
						{
							"key": "ETag",
							"value": "W/\"20a-wDP6og1V7DKMP9JfAkF7PSD6KSY\""
						},
						{
							"key": "Date",
							"value": "Fri, 19 Aug 2022 14:13:09 GMT"
						},
						{
							"key": "Connection",
							"value": "keep-alive"
						},
						{
							"key": "Keep-Alive",
							"value": "timeout=5"
						}
					],
					"cookie": [],
					"body": "{\n    \"user\": {\n        \"id\": \"4111c5cc-373c-4ca2-aad5-2f015b003f10\",\n        \"firstName\": \"mohammad\",\n        \"lastName\": \"tondkar\",\n        \"email\": \"mohmmadtondkar5@gmail.com\",\n        \"password\": \"81dc9bdb52d04dc20036dbd8313ed055\",\n        \"isDeleted\": false,\n        \"updatedAt\": \"2022-08-19T14:13:09.816Z\",\n        \"createdAt\": \"2022-08-19T14:13:09.816Z\"\n    },\n    \"token\": \"eyJhbGciOiJIUzI1NiIsInR5cCI6IkpXVCJ9.eyJpZCI6IjQxMTFjNWNjLTM3M2MtNGNhMi1hYWQ1LTJmMDE1YjAwM2YxMCIsImVtYWlsIjoibW9obW1hZHRvbmRrYXI1QGdtYWlsLmNvbSIsImlhdCI6MTY2MDkxODM4OSwiZXhwIjoxNjYxNTIzMTg5fQ.Q_0x1CawfEHH4HZaeIk8YRs-9Su_COYkHOeQ3o0_hmo\"\n}"
				}
			]
		},
		{
			"name": "get-user",
			"request": {
				"auth": {
					"type": "bearer",
					"bearer": [
						{
							"key": "token",
							"value": "eyJhbGciOiJIUzI1NiIsInR5cCI6IkpXVCJ9.eyJpZCI6NiwiZW1haWwiOiJtNkBnbWFpbC5jb20iLCJpYXQiOjE2NjA5MTMwMTgsImV4cCI6MTY2MTUxNzgxOH0.UP-DdxPMCCLQq53tRJiBS2JqEvYMeSxQz_oceJBZIng",
							"type": "string"
						}
					]
				},
				"method": "GET",
				"header": [
					{
						"key": "authentication",
						"value": "eyJhbGciOiJIUzI1NiIsInR5cCI6IkpXVCJ9.eyJpZCI6MiwiZW1haWwiOiJtQGdtYWlsLmNvbSIsImlhdCI6MTY2MDkwNjIxMiwiZXhwIjoxNjYxNTExMDEyfQ.uaYD3XJb856n19yzOEWqFzY7dK-_JiVll2plCMyopLM",
						"type": "text"
					}
				],
				"url": {
					"raw": "http://localhost:3000/user",
					"protocol": "http",
					"host": [
						"localhost"
					],
					"port": "3000",
					"path": [
						"user"
					]
				}
			},
			"response": [
				{
					"name": "get-user",
					"originalRequest": {
						"method": "GET",
						"header": [
							{
								"key": "authentication",
								"value": "eyJhbGciOiJIUzI1NiIsInR5cCI6IkpXVCJ9.eyJpZCI6MiwiZW1haWwiOiJtQGdtYWlsLmNvbSIsImlhdCI6MTY2MDkwNjIxMiwiZXhwIjoxNjYxNTExMDEyfQ.uaYD3XJb856n19yzOEWqFzY7dK-_JiVll2plCMyopLM",
								"type": "text"
							}
						],
						"url": {
							"raw": "http://localhost:3000/user",
							"protocol": "http",
							"host": [
								"localhost"
							],
							"port": "3000",
							"path": [
								"user"
							]
						}
					},
					"status": "OK",
					"code": 200,
					"_postman_previewlanguage": "json",
					"header": [
						{
							"key": "X-Powered-By",
							"value": "Express"
						},
						{
							"key": "Content-Type",
							"value": "application/json; charset=utf-8"
						},
						{
							"key": "Content-Length",
							"value": "267"
						},
						{
							"key": "ETag",
							"value": "W/\"10b-dWtTi13snll0/WbzhYciqncf4GM\""
						},
						{
							"key": "Date",
							"value": "Fri, 19 Aug 2022 14:13:33 GMT"
						},
						{
							"key": "Connection",
							"value": "keep-alive"
						},
						{
							"key": "Keep-Alive",
							"value": "timeout=5"
						}
					],
					"cookie": [],
					"body": "{\n    \"id\": \"4111c5cc-373c-4ca2-aad5-2f015b003f10\",\n    \"firstName\": \"mohammad\",\n    \"lastName\": \"tondkar\",\n    \"email\": \"mohmmadtondkar5@gmail.com\",\n    \"password\": \"81dc9bdb52d04dc20036dbd8313ed055\",\n    \"isDeleted\": false,\n    \"updatedAt\": \"2022-08-19T14:13:09.000Z\",\n    \"createdAt\": \"2022-08-19T14:13:09.000Z\"\n}"
				},
				{
					"name": "whene token is icorrect",
					"originalRequest": {
						"method": "GET",
						"header": [
							{
								"key": "authentication",
								"value": "eyJhbGciOiJIUzI1NiIsInR5cCI6IkpXVCJ9.eyJpZCI6MiwiZW1haWwiOiJtQGdtYWlsLmNvbSIsImlhdCI6MTY2MDkwNjIxMiwiZXhwIjoxNjYxNTExMDEyfQ.uaYD3XJb856n19yzOEWqFzY7dK-_JiVll2plCMyopLM",
								"type": "text"
							}
						],
						"url": {
							"raw": "http://localhost:3000/user",
							"protocol": "http",
							"host": [
								"localhost"
							],
							"port": "3000",
							"path": [
								"user"
							]
						}
					},
					"status": "Not Found",
					"code": 404,
					"_postman_previewlanguage": "json",
					"header": [
						{
							"key": "X-Powered-By",
							"value": "Express"
						},
						{
							"key": "Content-Type",
							"value": "application/json; charset=utf-8"
						},
						{
							"key": "Content-Length",
							"value": "34"
						},
						{
							"key": "ETag",
							"value": "W/\"22-g+paCKsiimAscIkT7SFDzypKFR4\""
						},
						{
							"key": "Date",
							"value": "Fri, 19 Aug 2022 14:18:02 GMT"
						},
						{
							"key": "Connection",
							"value": "keep-alive"
						},
						{
							"key": "Keep-Alive",
							"value": "timeout=5"
						}
					],
					"cookie": [],
					"body": "{\n    \"status\": \"Authentication failed\"\n}"
				}
			]
		},
		{
			"name": "update user",
			"request": {
				"auth": {
					"type": "bearer",
					"bearer": [
						{
							"key": "token",
							"value": "eyJhbGciOiJIUzI1NiIsInR5cCI6IkpXVCJ9.eyJpZCI6NiwiZW1haWwiOiJtNkBnbWFpbC5jb20iLCJpYXQiOjE2NjA5MTMwMTgsImV4cCI6MTY2MTUxNzgxOH0.UP-DdxPMCCLQq53tRJiBS2JqEvYMeSxQz_oceJBZIng",
							"type": "string"
						}
					]
				},
				"method": "PUT",
				"header": [],
				"body": {
					"mode": "raw",
					"raw": "{\r\n    \"firstName\": \"ali\",\r\n    \"lastName\": \"yash\",\r\n    \"password1\": \"1234\",\r\n    \"password2\": \"1234\"\r\n}",
					"options": {
						"raw": {
							"language": "json"
						}
					}
				},
				"url": {
					"raw": "http://localhost:3000/user",
					"protocol": "http",
					"host": [
						"localhost"
					],
					"port": "3000",
					"path": [
						"user"
					]
				}
			},
			"response": [
				{
					"name": "update user",
					"originalRequest": {
						"method": "PUT",
						"header": [],
						"body": {
							"mode": "raw",
							"raw": "{\r\n    \"firstName\": \"updateMohmmad\",\r\n    \"lastName\": \"updateTondkar\",\r\n    \"password1\": \"12\",\r\n    \"password2\": \"12\"\r\n}",
							"options": {
								"raw": {
									"language": "json"
								}
							}
						},
						"url": {
							"raw": "http://localhost:3000/user",
							"protocol": "http",
							"host": [
								"localhost"
							],
							"port": "3000",
							"path": [
								"user"
							]
						}
					},
					"status": "OK",
					"code": 200,
					"_postman_previewlanguage": "json",
					"header": [
						{
							"key": "X-Powered-By",
							"value": "Express"
						},
						{
							"key": "Content-Type",
							"value": "application/json; charset=utf-8"
						},
						{
							"key": "Content-Length",
							"value": "278"
						},
						{
							"key": "ETag",
							"value": "W/\"116-aHM3ZvFyaZ+vsLmjgzGp3XWEebg\""
						},
						{
							"key": "Date",
							"value": "Fri, 19 Aug 2022 14:19:22 GMT"
						},
						{
							"key": "Connection",
							"value": "keep-alive"
						},
						{
							"key": "Keep-Alive",
							"value": "timeout=5"
						}
					],
					"cookie": [],
					"body": "{\n    \"id\": \"4111c5cc-373c-4ca2-aad5-2f015b003f10\",\n    \"firstName\": \"updateMohmmad\",\n    \"lastName\": \"updateTondkar\",\n    \"email\": \"mohmmadtondkar5@gmail.com\",\n    \"password\": \"c20ad4d76fe97759aa27a0c99bff6710\",\n    \"isDeleted\": false,\n    \"updatedAt\": \"2022-08-19T14:19:22.000Z\",\n    \"createdAt\": \"2022-08-19T14:13:09.000Z\"\n}"
				}
			]
		},
		{
			"name": "login_user",
			"request": {
				"method": "POST",
				"header": [
					{
						"key": "Content-Type",
						"value": "application/json",
						"type": "text"
					}
				],
				"body": {
					"mode": "raw",
					"raw": "{\r\n    \"email\":\"m6@gmail.com\",\r\n    \"password\":\"12345\"\r\n}",
					"options": {
						"raw": {
							"language": "json"
						}
					}
				},
				"url": {
					"raw": "http://localhost:3000/authentication/login",
					"protocol": "http",
					"host": [
						"localhost"
					],
					"port": "3000",
					"path": [
						"authentication",
						"login"
					]
				}
			},
			"response": [
				{
					"name": "login_user",
					"originalRequest": {
						"method": "POST",
						"header": [
							{
								"key": "Content-Type",
								"value": "application/json",
								"type": "text"
							}
						],
						"body": {
							"mode": "raw",
							"raw": "{\r\n    \"email\":\"yass1@gmail.com\",\r\n    \"password\":\"1234\"\r\n}",
							"options": {
								"raw": {
									"language": "json"
								}
							}
						},
						"url": {
							"raw": "http://localhost:3000/authentication/login",
							"protocol": "http",
							"host": [
								"localhost"
							],
							"port": "3000",
							"path": [
								"authentication",
								"login"
							]
						}
					},
					"status": "OK",
					"code": 200,
					"_postman_previewlanguage": "json",
					"header": [
						{
							"key": "X-Powered-By",
							"value": "Express"
						},
						{
							"key": "Content-Type",
							"value": "application/json; charset=utf-8"
						},
						{
							"key": "Content-Length",
							"value": "184"
						},
						{
							"key": "ETag",
							"value": "W/\"b8-zR3DIap0Y/goudacLB8VqH2i78w\""
						},
						{
							"key": "Date",
							"value": "Fri, 19 Aug 2022 12:13:51 GMT"
						},
						{
							"key": "Connection",
							"value": "keep-alive"
						},
						{
							"key": "Keep-Alive",
							"value": "timeout=5"
						}
					],
					"cookie": [],
					"body": "{\n    \"token\": \"eyJhbGciOiJIUzI1NiIsInR5cCI6IkpXVCJ9.eyJpZCI6MywiZW1haWwiOiJ5YXNzMUBnbWFpbC5jb20iLCJpYXQiOjE2NjA5MTEyMzEsImV4cCI6MTY2MTUxNjAzMX0.gdmTcfcrDnSUpXPRf02j-uk2z_k3b-7wbXP70ZEQ5sw\"\n}"
				},
				{
					"name": "whene email does not exist",
					"originalRequest": {
						"method": "POST",
						"header": [
							{
								"key": "Content-Type",
								"value": "application/json",
								"type": "text"
							}
						],
						"body": {
							"mode": "raw",
							"raw": "{\r\n    \"email\":\"yass1@gmail.com\",\r\n    \"password\":\"1234\"\r\n}",
							"options": {
								"raw": {
									"language": "json"
								}
							}
						},
						"url": {
							"raw": "http://localhost:3000/authentication/login",
							"protocol": "http",
							"host": [
								"localhost"
							],
							"port": "3000",
							"path": [
								"authentication",
								"login"
							]
						}
					},
					"status": "OK",
					"code": 200,
					"_postman_previewlanguage": "json",
					"header": [
						{
							"key": "X-Powered-By",
							"value": "Express"
						},
						{
							"key": "Content-Type",
							"value": "application/json; charset=utf-8"
						},
						{
							"key": "Content-Length",
							"value": "34"
						},
						{
							"key": "ETag",
							"value": "W/\"22-Jl8U4P3YStS3rgt2dohqQKlzvmU\""
						},
						{
							"key": "Date",
							"value": "Fri, 19 Aug 2022 12:50:36 GMT"
						},
						{
							"key": "Connection",
							"value": "keep-alive"
						},
						{
							"key": "Keep-Alive",
							"value": "timeout=5"
						}
					],
					"cookie": [],
					"body": "{\n    \"message\": \"email does not exist\"\n}"
				},
				{
					"name": "whene password has incorrect",
					"originalRequest": {
						"method": "POST",
						"header": [
							{
								"key": "Content-Type",
								"value": "application/json",
								"type": "text"
							}
						],
						"body": {
							"mode": "raw",
							"raw": "{\r\n    \"email\":\"m6@gmail.com\",\r\n    \"password\":\"12345\"\r\n}",
							"options": {
								"raw": {
									"language": "json"
								}
							}
						},
						"url": {
							"raw": "http://localhost:3000/authentication/login",
							"protocol": "http",
							"host": [
								"localhost"
							],
							"port": "3000",
							"path": [
								"authentication",
								"login"
							]
						}
					},
					"status": "OK",
					"code": 200,
					"_postman_previewlanguage": "json",
					"header": [
						{
							"key": "X-Powered-By",
							"value": "Express"
						},
						{
							"key": "Content-Type",
							"value": "application/json; charset=utf-8"
						},
						{
							"key": "Content-Length",
							"value": "32"
						},
						{
							"key": "ETag",
							"value": "W/\"20-cTh0ipRx/i7Ygx5jGkrhH9PxKF4\""
						},
						{
							"key": "Date",
							"value": "Fri, 19 Aug 2022 12:51:44 GMT"
						},
						{
							"key": "Connection",
							"value": "keep-alive"
						},
						{
							"key": "Keep-Alive",
							"value": "timeout=5"
						}
					],
					"cookie": [],
					"body": "{\n    \"message\": \"password incorrect\"\n}"
				}
			]
		},
		{
			"name": "delete_user",
			"request": {
				"auth": {
					"type": "bearer",
					"bearer": [
						{
							"key": "token",
							"value": "eyJhbGciOiJIUzI1NiIsInR5cCI6IkpXVCJ9.eyJpZCI6MywiZW1haWwiOiJ5YXNzMUBnbWFpbC5jb20iLCJpYXQiOjE2NjA5MDc5NDEsImV4cCI6MTY2MTUxMjc0MX0.-huHjEOXN-hmPLZA1YyH2BaYt8SYxuxvNs7RwrGo24o",
							"type": "string"
						}
					]
				},
				"method": "GET",
				"header": [],
				"url": {
					"raw": "http://localhost:3000/user/delete",
					"protocol": "http",
					"host": [
						"localhost"
					],
					"port": "3000",
					"path": [
						"user",
						"delete"
					]
				}
			},
			"response": [
				{
					"name": "delete_user",
					"originalRequest": {
						"method": "GET",
						"header": [],
						"url": {
							"raw": "http://localhost:3000/user/delete",
							"protocol": "http",
							"host": [
								"localhost"
							],
							"port": "3000",
							"path": [
								"user",
								"delete"
							]
						}
					},
					"status": "OK",
					"code": 200,
					"_postman_previewlanguage": "json",
					"header": [
						{
							"key": "X-Powered-By",
							"value": "Express"
						},
						{
							"key": "Content-Type",
							"value": "application/json; charset=utf-8"
						},
						{
							"key": "Content-Length",
							"value": "27"
						},
						{
							"key": "ETag",
							"value": "W/\"1b-dftLCX+6V+VgBdIXDKl5L7rCHDo\""
						},
						{
							"key": "Date",
							"value": "Fri, 19 Aug 2022 12:52:33 GMT"
						},
						{
							"key": "Connection",
							"value": "keep-alive"
						},
						{
							"key": "Keep-Alive",
							"value": "timeout=5"
						}
					],
					"cookie": [],
					"body": "{\n    \"message\": \"User deleted!\"\n}"
				}
			]
		}
	]
}